[
  {
    "value": "Pacific Time (US)",
    "abbr": "PDT",
    "offset": -7,
    "isdst": true,
    "text": "(UTC-07:00) Pacific Time (US)"
  },
  {
    "value": "Mountain Time (US)",
    "abbr": "MDT",
    "offset": -6,
    "isdst": false,
    "text": "(UTC-06:00) Mountain Time (US)"
  },
  {
    "value": "Central Time (US)",
    "abbr": "CDT",
    "offset": -5,
    "isdst": false,
    "text": "(UTC-05:00) Central Time (US)"
  },
  {
    "value": "Eastern Time (US)",
    "abbr": "EDT",
    "offset": -4,
    "isdst": false,
    "text": "(UTC-04:00) Eastern Time (US)"
  }
]
